led_blinker.vcd
$date
	Thu Sep 25 23:02:07 2025
$end
$version
	Icarus Verilog
$end
$timescale
	1ps
$end
$scope module led_blinker_tb $end
$var wire 1 ! o_led_drive $end
$var wire 1 " dbg_temp_o_led $end
$var wire 1 # dbg_t50 $end
$var wire 1 $ dbg_t100 $end
$var wire 1 % dbg_t10 $end
$var wire 1 & dbg_t1 $end
$var reg 1 ' i_clock $end
$var reg 1 ( i_enable $end
$var reg 1 ) i_switch_1 $end
$var reg 1 * i_switch_2 $end
$var integer 32 + i [31:0] $end
$scope module dut $end
$var wire 1 & dbg_t1 $end
$var wire 1 % dbg_t10 $end
$var wire 1 $ dbg_t100 $end
$var wire 1 # dbg_t50 $end
$var wire 1 " dbg_temp_o_led $end
$var wire 1 ' i_clock $end
$var wire 1 ( i_enable $end
$var wire 1 ) i_switch_1 $end
$var wire 1 * i_switch_2 $end
$var wire 1 ! o_led_drive $end
$var reg 25 , count [24:0] $end
$var reg 1 - t1 $end
$var reg 1 . t10 $end
$var reg 1 / t100 $end
$var reg 1 0 t50 $end
$var reg 1 1 temp_o_led $end
$upscope $end
$upscope $end
$enddefinitions $end
#20000000000000
$dumpvars
01
00
0/
0.
0-
b1 ,
b0 +
0*
0)
1(
1'
0&
0%
0$
0#
0"
0!
$end
#40000000000000
0'
#60000000000000
b10 ,
1'
#80000000000000
0'
#100000000000000
b11 ,
1'
#120000000000000
0'
#140000000000000
b100 ,
1'
#160000000000000
0'
#180000000000000
b101 ,
1'
#200000000000000
0'
#220000000000000
b110 ,
1'
#240000000000000
0'
#260000000000000
b111 ,
1'
#280000000000000
0'
#300000000000000
b1000 ,
1'
#320000000000000
0'
#340000000000000
b1001 ,
1'
#360000000000000
0'
#380000000000000
b1010 ,
1'
#400000000000000
0'
#420000000000000
1$
1/
b1011 ,
1'
#440000000000000
0'
#460000000000000
1!
1"
11
b1100 ,
1'
#480000000000000
0'
#500000000000000
b1101 ,
1'
#520000000000000
0'
#540000000000000
b1110 ,
1'
#560000000000000
0'
#580000000000000
b1111 ,
1'
#600000000000000
0'
#620000000000000
b10000 ,
1'
#640000000000000
0'
#660000000000000
b10001 ,
1'
#680000000000000
0'
#700000000000000
b10010 ,
1'
#720000000000000
0'
#740000000000000
b10011 ,
1'
#760000000000000
0'
#780000000000000
b10100 ,
1'
#800000000000000
0'
#820000000000000
1#
10
0$
0/
b10101 ,
1'
#840000000000000
0'
#860000000000000
0!
0"
01
b10110 ,
1'
#880000000000000
0'
#900000000000000
b10111 ,
1'
#920000000000000
0'
#940000000000000
b11000 ,
1'
#960000000000000
0'
#980000000000000
b11001 ,
1'
#1000000000000000
0'
#1020000000000000
b11010 ,
1'
#1040000000000000
0'
#1060000000000000
b11011 ,
1'
#1080000000000000
0'
#1100000000000000
b11100 ,
1'
#1120000000000000
0'
#1140000000000000
b11101 ,
1'
#1160000000000000
0'
#1180000000000000
b11110 ,
1'
#1200000000000000
0'
#1220000000000000
1$
1/
b11111 ,
1'
#1240000000000000
0'
#1260000000000000
1!
1"
11
b100000 ,
1'
#1280000000000000
0'
#1300000000000000
b100001 ,
1'
#1320000000000000
0'
#1340000000000000
b100010 ,
1'
#1360000000000000
0'
#1380000000000000
b100011 ,
1'
#1400000000000000
0'
#1420000000000000
b100100 ,
1'
#1440000000000000
0'
#1460000000000000
b100101 ,
1'
#1480000000000000
0'
#1500000000000000
b100110 ,
1'
#1520000000000000
0'
#1540000000000000
b100111 ,
1'
#1560000000000000
0'
#1580000000000000
b101000 ,
1'
#1600000000000000
0'
#1620000000000000
0#
00
0$
0/
b101001 ,
1'
#1640000000000000
0'
#1660000000000000
0!
0"
01
b101010 ,
1'
#1680000000000000
0'
#1700000000000000
b101011 ,
1'
#1720000000000000
0'
#1740000000000000
b101100 ,
1'
#1760000000000000
0'
#1780000000000000
b101101 ,
1'
#1800000000000000
0'
#1820000000000000
b101110 ,
1'
#1840000000000000
0'
#1860000000000000
b101111 ,
1'
#1880000000000000
0'
#1900000000000000
b110000 ,
1'
#1920000000000000
0'
#1940000000000000
b110001 ,
1'
#1960000000000000
0'
#1980000000000000
b110010 ,
1'
#2000000000000000
0'
#2020000000000000
1%
1.
1$
1/
b110011 ,
1'
#2040000000000000
0'
#2060000000000000
1!
1"
11
b110100 ,
1'
#2080000000000000
0'
#2100000000000000
b110101 ,
1'
#2120000000000000
0'
#2140000000000000
b110110 ,
1'
#2160000000000000
0'
#2180000000000000
b110111 ,
1'
#2200000000000000
0'
#2220000000000000
b111000 ,
1'
#2240000000000000
0'
#2260000000000000
b111001 ,
1'
#2280000000000000
0'
#2300000000000000
b111010 ,
1'
#2320000000000000
0'
#2340000000000000
b111011 ,
1'
#2360000000000000
0'
#2380000000000000
b111100 ,
1'
#2400000000000000
0'
#2420000000000000
1#
10
0$
0/
b111101 ,
1'
#2440000000000000
0'
#2460000000000000
0!
0"
01
b111110 ,
1'
#2480000000000000
0'
#2500000000000000
b111111 ,
1'
#2520000000000000
0'
#2540000000000000
b1000000 ,
1'
#2560000000000000
0'
#2580000000000000
b1000001 ,
1'
#2600000000000000
0'
#2620000000000000
b1000010 ,
1'
#2640000000000000
0'
#2660000000000000
b1000011 ,
1'
#2680000000000000
0'
#2700000000000000
b1000100 ,
1'
#2720000000000000
0'
#2740000000000000
b1000101 ,
1'
#2760000000000000
0'
#2780000000000000
b1000110 ,
1'
#2800000000000000
0'
#2820000000000000
1$
1/
b1000111 ,
1'
#2840000000000000
0'
#2860000000000000
1!
1"
11
b1001000 ,
1'
#2880000000000000
0'
#2900000000000000
b1001001 ,
1'
#2920000000000000
0'
#2940000000000000
b1001010 ,
1'
#2960000000000000
0'
#2980000000000000
b1001011 ,
1'
#3000000000000000
0'
#3020000000000000
b1001100 ,
1'
#3040000000000000
0'
#3060000000000000
b1001101 ,
1'
#3080000000000000
0'
#3100000000000000
b1001110 ,
1'
#3120000000000000
0'
#3140000000000000
b1001111 ,
1'
#3160000000000000
0'
#3180000000000000
b1010000 ,
1'
#3200000000000000
0'
#3220000000000000
0#
00
0$
0/
b1010001 ,
1'
#3240000000000000
0'
#3260000000000000
0!
0"
01
b1010010 ,
1'
#3280000000000000
0'
#3300000000000000
b1010011 ,
1'
#3320000000000000
0'
#3340000000000000
b1010100 ,
1'
#3360000000000000
0'
#3380000000000000
b1010101 ,
1'
#3400000000000000
0'
#3420000000000000
b1010110 ,
1'
#3440000000000000
0'
#3460000000000000
b1010111 ,
1'
#3480000000000000
0'
#3500000000000000
b1011000 ,
1'
#3520000000000000
0'
#3540000000000000
b1011001 ,
1'
#3560000000000000
0'
#3580000000000000
b1011010 ,
1'
#3600000000000000
0'
#3620000000000000
1$
1/
b1011011 ,
1'
#3640000000000000
0'
#3660000000000000
1!
1"
11
b1011100 ,
1'
#3680000000000000
0'
#3700000000000000
b1011101 ,
1'
#3720000000000000
0'
#3740000000000000
b1011110 ,
1'
#3760000000000000
0'
#3780000000000000
b1011111 ,
1'
#3800000000000000
0'
#3820000000000000
b1100000 ,
1'
#3840000000000000
0'
#3860000000000000
b1100001 ,
1'
#3880000000000000
0'
#3900000000000000
b1100010 ,
1'
#3920000000000000
0'
#3940000000000000
b1100011 ,
1'
#3960000000000000
0'
#3980000000000000
b1100100 ,
1'
#4000000000000000
0'
#4020000000000000
1&
1-
0%
0.
1#
10
0$
0/
b1100101 ,
1'
#4040000000000000
0'
#4060000000000000
0!
0"
01
b1100110 ,
1'
#4080000000000000
0'
#4100000000000000
b1100111 ,
1'
#4120000000000000
0'
#4140000000000000
b1101000 ,
1'
#4160000000000000
0'
#4180000000000000
b1101001 ,
1'
#4200000000000000
0'
#4220000000000000
b1101010 ,
1'
#4240000000000000
0'
#4260000000000000
b1101011 ,
1'
#4280000000000000
0'
#4300000000000000
b1101100 ,
1'
#4320000000000000
0'
#4340000000000000
b1101101 ,
1'
#4360000000000000
0'
#4380000000000000
b1101110 ,
1'
#4400000000000000
0'
#4420000000000000
1$
1/
b1101111 ,
1'
#4440000000000000
0'
#4460000000000000
1!
1"
11
b1110000 ,
1'
#4480000000000000
0'
#4500000000000000
b1110001 ,
1'
#4520000000000000
0'
#4540000000000000
b1110010 ,
1'
#4560000000000000
0'
#4580000000000000
b1110011 ,
1'
#4600000000000000
0'
#4620000000000000
b1110100 ,
1'
#4640000000000000
0'
#4660000000000000
b1110101 ,
1'
#4680000000000000
0'
#4700000000000000
b1110110 ,
1'
#4720000000000000
0'
#4740000000000000
b1110111 ,
1'
#4760000000000000
0'
#4780000000000000
b1111000 ,
1'
#4800000000000000
0'
#4820000000000000
0#
00
0$
0/
b1111001 ,
1'
#4840000000000000
0'
#4860000000000000
0!
0"
01
b1111010 ,
1'
#4880000000000000
0'
#4900000000000000
b1111011 ,
1'
#4920000000000000
0'
#4940000000000000
b1111100 ,
1'
#4960000000000000
0'
#4980000000000000
b1111101 ,
1'
#5000000000000000
0'
#5020000000000000
b1111110 ,
1'
#5040000000000000
0'
#5060000000000000
b1111111 ,
1'
#5080000000000000
0'
#5100000000000000
b10000000 ,
1'
#5120000000000000
0'
#5140000000000000
b10000001 ,
1'
#5160000000000000
0'
#5180000000000000
b10000010 ,
1'
#5200000000000000
0'
#5220000000000000
1$
1/
b10000011 ,
1'
#5240000000000000
0'
#5260000000000000
1!
1"
11
b10000100 ,
1'
#5280000000000000
0'
#5300000000000000
b10000101 ,
1'
#5320000000000000
0'
#5340000000000000
b10000110 ,
1'
#5360000000000000
0'
#5380000000000000
b10000111 ,
1'
#5400000000000000
0'
#5420000000000000
b10001000 ,
1'
#5440000000000000
0'
#5460000000000000
b10001001 ,
1'
#5480000000000000
0'
#5500000000000000
b10001010 ,
1'
#5520000000000000
0'
#5540000000000000
b10001011 ,
1'
#5560000000000000
0'
#5580000000000000
b10001100 ,
1'
#5600000000000000
0'
#5620000000000000
1#
10
0$
0/
b10001101 ,
1'
#5640000000000000
0'
#5660000000000000
0!
0"
01
b10001110 ,
1'
#5680000000000000
0'
#5700000000000000
b10001111 ,
1'
#5720000000000000
0'
#5740000000000000
b10010000 ,
1'
#5760000000000000
0'
#5780000000000000
b10010001 ,
1'
#5800000000000000
0'
#5820000000000000
b10010010 ,
1'
#5840000000000000
0'
#5860000000000000
b10010011 ,
1'
#5880000000000000
0'
#5900000000000000
b10010100 ,
1'
#5920000000000000
0'
#5940000000000000
b10010101 ,
1'
#5960000000000000
0'
#5980000000000000
b10010110 ,
1'
#6000000000000000
0'
#6020000000000000
1%
1.
1$
1/
b10010111 ,
1'
#6040000000000000
0'
#6060000000000000
1!
1"
11
b10011000 ,
1'
#6080000000000000
0'
#6100000000000000
b10011001 ,
1'
#6120000000000000
0'
#6140000000000000
b10011010 ,
1'
#6160000000000000
0'
#6180000000000000
b10011011 ,
1'
#6200000000000000
0'
#6220000000000000
b10011100 ,
1'
#6240000000000000
0'
#6260000000000000
b10011101 ,
1'
#6280000000000000
0'
#6300000000000000
b10011110 ,
1'
#6320000000000000
0'
#6340000000000000
b10011111 ,
1'
#6360000000000000
0'
#6380000000000000
b10100000 ,
1'
#6400000000000000
0'
#6420000000000000
0#
00
0$
0/
b10100001 ,
1'
#6440000000000000
0'
#6460000000000000
0!
0"
01
b10100010 ,
1'
#6480000000000000
0'
#6500000000000000
b10100011 ,
1'
#6520000000000000
0'
#6540000000000000
b10100100 ,
1'
#6560000000000000
0'
#6580000000000000
b10100101 ,
1'
#6600000000000000
0'
#6620000000000000
b10100110 ,
1'
#6640000000000000
0'
#6660000000000000
b10100111 ,
1'
#6680000000000000
0'
#6700000000000000
b10101000 ,
1'
#6720000000000000
0'
#6740000000000000
b10101001 ,
1'
#6760000000000000
0'
#6780000000000000
b10101010 ,
1'
#6800000000000000
0'
#6820000000000000
1$
1/
b10101011 ,
1'
#6840000000000000
0'
#6860000000000000
1!
1"
11
b10101100 ,
1'
#6880000000000000
0'
#6900000000000000
b10101101 ,
1'
#6920000000000000
0'
#6940000000000000
b10101110 ,
1'
#6960000000000000
0'
#6980000000000000
b10101111 ,
1'
#7000000000000000
0'
#7020000000000000
b10110000 ,
1'
#7040000000000000
0'
#7060000000000000
b10110001 ,
1'
#7080000000000000
0'
#7100000000000000
b10110010 ,
1'
#7120000000000000
0'
#7140000000000000
b10110011 ,
1'
#7160000000000000
0'
#7180000000000000
b10110100 ,
1'
#7200000000000000
0'
#7220000000000000
1#
10
0$
0/
b10110101 ,
1'
#7240000000000000
0'
#7260000000000000
0!
0"
01
b10110110 ,
1'
#7280000000000000
0'
#7300000000000000
b10110111 ,
1'
#7320000000000000
0'
#7340000000000000
b10111000 ,
1'
#7360000000000000
0'
#7380000000000000
b10111001 ,
1'
#7400000000000000
0'
#7420000000000000
b10111010 ,
1'
#7440000000000000
0'
#7460000000000000
b10111011 ,
1'
#7480000000000000
0'
#7500000000000000
b10111100 ,
1'
#7520000000000000
0'
#7540000000000000
b10111101 ,
1'
#7560000000000000
0'
#7580000000000000
b10111110 ,
1'
#7600000000000000
0'
#7620000000000000
1$
1/
b10111111 ,
1'
#7640000000000000
0'
#7660000000000000
1!
1"
11
b11000000 ,
1'
#7680000000000000
0'
#7700000000000000
b11000001 ,
1'
#7720000000000000
0'
#7740000000000000
b11000010 ,
1'
#7760000000000000
0'
#7780000000000000
b11000011 ,
1'
#7800000000000000
0'
#7820000000000000
b11000100 ,
1'
#7840000000000000
0'
#7860000000000000
b11000101 ,
1'
#7880000000000000
0'
#7900000000000000
b11000110 ,
1'
#7920000000000000
0'
#7940000000000000
b11000111 ,
1'
#7960000000000000
0'
#7980000000000000
b11001000 ,
1'
#8000000000000000
0'
#8020000000000000
0&
0-
0%
0.
0#
00
0$
0/
b11001001 ,
1'
#8040000000000000
0'
#8060000000000000
0!
0"
01
b11001010 ,
1'
#8080000000000000
0'
#8100000000000000
b11001011 ,
1'
#8120000000000000
0'
#8140000000000000
b11001100 ,
1'
#8160000000000000
0'
#8180000000000000
b11001101 ,
1'
#8200000000000000
0'
#8220000000000000
b11001110 ,
1'
#8240000000000000
0'
#8260000000000000
b11001111 ,
1'
#8280000000000000
0'
#8300000000000000
b11010000 ,
1'
#8320000000000000
0'
#8340000000000000
b11010001 ,
1'
#8360000000000000
0'
#8380000000000000
b11010010 ,
1'
#8400000000000000
0'
#8420000000000000
1$
1/
b11010011 ,
1'
#8440000000000000
0'
#8460000000000000
1!
1"
11
b11010100 ,
1'
#8480000000000000
0'
#8500000000000000
b11010101 ,
1'
#8520000000000000
0'
#8540000000000000
b11010110 ,
1'
#8560000000000000
0'
#8580000000000000
b11010111 ,
1'
#8600000000000000
0'
#8620000000000000
b11011000 ,
1'
#8640000000000000
0'
#8660000000000000
b11011001 ,
1'
#8680000000000000
0'
#8700000000000000
b11011010 ,
1'
#8720000000000000
0'
#8740000000000000
b11011011 ,
1'
#8760000000000000
0'
#8780000000000000
b11011100 ,
1'
#8800000000000000
0'
#8820000000000000
1#
10
0$
0/
b11011101 ,
1'
#8840000000000000
0'
#8860000000000000
0!
0"
01
b11011110 ,
1'
#8880000000000000
0'
#8900000000000000
b11011111 ,
1'
#8920000000000000
0'
#8940000000000000
b11100000 ,
1'
#8960000000000000
0'
#8980000000000000
b11100001 ,
1'
#9000000000000000
0'
#9020000000000000
b11100010 ,
1'
#9040000000000000
0'
#9060000000000000
b11100011 ,
1'
#9080000000000000
0'
#9100000000000000
b11100100 ,
1'
#9120000000000000
0'
#9140000000000000
b11100101 ,
1'
#9160000000000000
0'
#9180000000000000
b11100110 ,
1'
#9200000000000000
0'
#9220000000000000
1$
1/
b11100111 ,
1'
#9240000000000000
0'
#9260000000000000
1!
1"
11
b11101000 ,
1'
#9280000000000000
0'
#9300000000000000
b11101001 ,
1'
#9320000000000000
0'
#9340000000000000
b11101010 ,
1'
#9360000000000000
0'
#9380000000000000
b11101011 ,
1'
#9400000000000000
0'
#9420000000000000
b11101100 ,
1'
#9440000000000000
0'
#9460000000000000
b11101101 ,
1'
#9480000000000000
0'
#9500000000000000
b11101110 ,
1'
#9520000000000000
0'
#9540000000000000
b11101111 ,
1'
#9560000000000000
0'
#9580000000000000
b11110000 ,
1'
#9600000000000000
0'
#9620000000000000
0#
00
0$
0/
b11110001 ,
1'
#9640000000000000
0'
#9660000000000000
0!
0"
01
b11110010 ,
1'
#9680000000000000
0'
#9700000000000000
b11110011 ,
1'
#9720000000000000
0'
#9740000000000000
b11110100 ,
1'
#9760000000000000
0'
#9780000000000000
b11110101 ,
1'
#9800000000000000
0'
#9820000000000000
b11110110 ,
1'
#9840000000000000
0'
#9860000000000000
b11110111 ,
1'
#9880000000000000
0'
#9900000000000000
b11111000 ,
1'
#9920000000000000
0'
#9940000000000000
b11111001 ,
1'
#9960000000000000
0'
#9980000000000000
b11111010 ,
1'
#10000000000000000
0'
#10020000000000000
1%
1.
1$
1/
b11111011 ,
1'
#10040000000000000
0'
#10060000000000000
1!
1"
11
b11111100 ,
1'
#10080000000000000
0'
#10100000000000000
b11111101 ,
1'
#10120000000000000
0'
#10140000000000000
b11111110 ,
1'
#10160000000000000
0'
#10180000000000000
b11111111 ,
1'
#10200000000000000
0'
#10220000000000000
b100000000 ,
1'
#10240000000000000
0'
#10260000000000000
b100000001 ,
1'
#10280000000000000
0'
#10300000000000000
b100000010 ,
1'
#10320000000000000
0'
#10340000000000000
b100000011 ,
1'
#10360000000000000
0'
#10380000000000000
b100000100 ,
1'
#10400000000000000
0'
#10420000000000000
1#
10
0$
0/
b100000101 ,
1'
#10440000000000000
0'
#10460000000000000
0!
0"
01
b100000110 ,
1'
#10480000000000000
0'
#10500000000000000
b100000111 ,
1'
#10520000000000000
0'
#10540000000000000
b100001000 ,
1'
#10560000000000000
0'
#10580000000000000
b100001001 ,
1'
#10600000000000000
0'
#10620000000000000
b100001010 ,
1'
#10640000000000000
0'
#10660000000000000
b100001011 ,
1'
#10680000000000000
0'
#10700000000000000
b100001100 ,
1'
#10720000000000000
0'
#10740000000000000
b100001101 ,
1'
#10760000000000000
0'
#10780000000000000
b100001110 ,
1'
#10800000000000000
0'
#10820000000000000
1$
1/
b100001111 ,
1'
#10840000000000000
0'
#10860000000000000
1!
1"
11
b100010000 ,
1'
#10880000000000000
0'
#10900000000000000
b100010001 ,
1'
#10920000000000000
0'
#10940000000000000
b100010010 ,
1'
#10960000000000000
0'
#10980000000000000
b100010011 ,
1'
#11000000000000000
0'
#11020000000000000
b100010100 ,
1'
#11040000000000000
0'
#11060000000000000
b100010101 ,
1'
#11080000000000000
0'
#11100000000000000
b100010110 ,
1'
#11120000000000000
0'
#11140000000000000
b100010111 ,
1'
#11160000000000000
0'
#11180000000000000
b100011000 ,
1'
#11200000000000000
0'
#11220000000000000
0#
00
0$
0/
b100011001 ,
1'
#11240000000000000
0'
#11260000000000000
0!
0"
01
b100011010 ,
1'
#11280000000000000
0'
#11300000000000000
b100011011 ,
1'
#11320000000000000
0'
#11340000000000000
b100011100 ,
1'
#11360000000000000
0'
#11380000000000000
b100011101 ,
1'
#11400000000000000
0'
#11420000000000000
b100011110 ,
1'
#11440000000000000
0'
#11460000000000000
b100011111 ,
1'
#11480000000000000
0'
#11500000000000000
b100100000 ,
1'
#11520000000000000
0'
#11540000000000000
b100100001 ,
1'
#11560000000000000
0'
#11580000000000000
b100100010 ,
1'
#11600000000000000
0'
#11620000000000000
1$
1/
b100100011 ,
1'
#11640000000000000
0'
#11660000000000000
1!
1"
11
b100100100 ,
1'
#11680000000000000
0'
#11700000000000000
b100100101 ,
1'
#11720000000000000
0'
#11740000000000000
b100100110 ,
1'
#11760000000000000
0'
#11780000000000000
b100100111 ,
1'
#11800000000000000
0'
#11820000000000000
b100101000 ,
1'
#11840000000000000
0'
#11860000000000000
b100101001 ,
1'
#11880000000000000
0'
#11900000000000000
b100101010 ,
1'
#11920000000000000
0'
#11940000000000000
b100101011 ,
1'
#11960000000000000
0'
#11980000000000000
b100101100 ,
1'
#12000000000000000
0'
#12020000000000000
1&
1-
0%
0.
1#
10
0$
0/
b100101101 ,
1'
#12040000000000000
0'
#12060000000000000
0!
0"
01
b100101110 ,
1'
#12080000000000000
0'
#12100000000000000
b100101111 ,
1'
#12120000000000000
0'
#12140000000000000
b100110000 ,
1'
#12160000000000000
0'
#12180000000000000
b100110001 ,
1'
#12200000000000000
0'
#12220000000000000
b100110010 ,
1'
#12240000000000000
0'
#12260000000000000
b100110011 ,
1'
#12280000000000000
0'
#12300000000000000
b100110100 ,
1'
#12320000000000000
0'
#12340000000000000
b100110101 ,
1'
#12360000000000000
0'
#12380000000000000
b100110110 ,
1'
#12400000000000000
0'
#12420000000000000
1$
1/
b100110111 ,
1'
#12440000000000000
0'
#12460000000000000
1!
1"
11
b100111000 ,
1'
#12480000000000000
0'
#12500000000000000
b100111001 ,
1'
#12520000000000000
0'
#12540000000000000
b100111010 ,
1'
#12560000000000000
0'
#12580000000000000
b100111011 ,
1'
#12600000000000000
0'
#12620000000000000
b100111100 ,
1'
#12640000000000000
0'
#12660000000000000
b100111101 ,
1'
#12680000000000000
0'
#12700000000000000
b100111110 ,
1'
#12720000000000000
0'
#12740000000000000
b100111111 ,
1'
#12760000000000000
0'
#12780000000000000
b101000000 ,
1'
#12800000000000000
0'
#12820000000000000
0#
00
0$
0/
b101000001 ,
1'
#12840000000000000
0'
#12860000000000000
0!
0"
01
b101000010 ,
1'
#12880000000000000
0'
#12900000000000000
b101000011 ,
1'
#12920000000000000
0'
#12940000000000000
b101000100 ,
1'
#12960000000000000
0'
#12980000000000000
b101000101 ,
1'
#13000000000000000
0'
#13020000000000000
b101000110 ,
1'
#13040000000000000
0'
#13060000000000000
b101000111 ,
1'
#13080000000000000
0'
#13100000000000000
b101001000 ,
1'
#13120000000000000
0'
#13140000000000000
b101001001 ,
1'
#13160000000000000
0'
#13180000000000000
b101001010 ,
1'
#13200000000000000
0'
#13220000000000000
1$
1/
b101001011 ,
1'
#13240000000000000
0'
#13260000000000000
1!
1"
11
b101001100 ,
1'
#13280000000000000
0'
#13300000000000000
b101001101 ,
1'
#13320000000000000
0'
#13340000000000000
b101001110 ,
1'
#13360000000000000
0'
#13380000000000000
b101001111 ,
1'
#13400000000000000
0'
#13420000000000000
b101010000 ,
1'
#13440000000000000
0'
#13460000000000000
b101010001 ,
1'
#13480000000000000
0'
#13500000000000000
b101010010 ,
1'
#13520000000000000
0'
#13540000000000000
b101010011 ,
1'
#13560000000000000
0'
#13580000000000000
b101010100 ,
1'
#13600000000000000
0'
#13620000000000000
1#
10
0$
0/
b101010101 ,
1'
#13640000000000000
0'
#13660000000000000
0!
0"
01
b101010110 ,
1'
#13680000000000000
0'
#13700000000000000
b101010111 ,
1'
#13720000000000000
0'
#13740000000000000
b101011000 ,
1'
#13760000000000000
0'
#13780000000000000
b101011001 ,
1'
#13800000000000000
0'
#13820000000000000
b101011010 ,
1'
#13840000000000000
0'
#13860000000000000
b101011011 ,
1'
#13880000000000000
0'
#13900000000000000
b101011100 ,
1'
#13920000000000000
0'
#13940000000000000
b101011101 ,
1'
#13960000000000000
0'
#13980000000000000
b101011110 ,
1'
#14000000000000000
0'
#14020000000000000
1%
1.
1$
1/
b101011111 ,
1'
#14040000000000000
0'
#14060000000000000
1!
1"
11
b101100000 ,
1'
#14080000000000000
0'
#14100000000000000
b101100001 ,
1'
#14120000000000000
0'
#14140000000000000
b101100010 ,
1'
#14160000000000000
0'
#14180000000000000
b101100011 ,
1'
#14200000000000000
0'
#14220000000000000
b101100100 ,
1'
#14240000000000000
0'
#14260000000000000
b101100101 ,
1'
#14280000000000000
0'
#14300000000000000
b101100110 ,
1'
#14320000000000000
0'
#14340000000000000
b101100111 ,
1'
#14360000000000000
0'
#14380000000000000
b101101000 ,
1'
#14400000000000000
0'
#14420000000000000
0#
00
0$
0/
b101101001 ,
1'
#14440000000000000
0'
#14460000000000000
0!
0"
01
b101101010 ,
1'
#14480000000000000
0'
#14500000000000000
b101101011 ,
1'
#14520000000000000
0'
#14540000000000000
b101101100 ,
1'
#14560000000000000
0'
#14580000000000000
b101101101 ,
1'
#14600000000000000
0'
#14620000000000000
b101101110 ,
1'
#14640000000000000
0'
#14660000000000000
b101101111 ,
1'
#14680000000000000
0'
#14700000000000000
b101110000 ,
1'
#14720000000000000
0'
#14740000000000000
b101110001 ,
1'
#14760000000000000
0'
#14780000000000000
b101110010 ,
1'
#14800000000000000
0'
#14820000000000000
1$
1/
b101110011 ,
1'
#14840000000000000
0'
#14860000000000000
1!
1"
11
b101110100 ,
1'
#14880000000000000
0'
#14900000000000000
b101110101 ,
1'
#14920000000000000
0'
#14940000000000000
b101110110 ,
1'
#14960000000000000
0'
#14980000000000000
b101110111 ,
1'
#15000000000000000
0'
#15020000000000000
b101111000 ,
1'
#15040000000000000
0'
#15060000000000000
b101111001 ,
1'
#15080000000000000
0'
#15100000000000000
b101111010 ,
1'
#15120000000000000
0'
#15140000000000000
b101111011 ,
1'
#15160000000000000
0'
#15180000000000000
b101111100 ,
1'
#15200000000000000
0'
#15220000000000000
1#
10
0$
0/
b101111101 ,
1'
#15240000000000000
0'
#15260000000000000
0!
0"
01
b101111110 ,
1'
#15280000000000000
0'
#15300000000000000
b101111111 ,
1'
#15320000000000000
0'
#15340000000000000
b110000000 ,
1'
#15360000000000000
0'
#15380000000000000
b110000001 ,
1'
#15400000000000000
0'
#15420000000000000
b110000010 ,
1'
#15440000000000000
0'
#15460000000000000
b110000011 ,
1'
#15480000000000000
0'
#15500000000000000
b110000100 ,
1'
#15520000000000000
0'
#15540000000000000
b110000101 ,
1'
#15560000000000000
0'
#15580000000000000
b110000110 ,
1'
#15600000000000000
0'
#15620000000000000
1$
1/
b110000111 ,
1'
#15640000000000000
0'
#15660000000000000
1!
1"
11
b110001000 ,
1'
#15680000000000000
0'
#15700000000000000
b110001001 ,
1'
#15720000000000000
0'
#15740000000000000
b110001010 ,
1'
#15760000000000000
0'
#15780000000000000
b110001011 ,
1'
#15800000000000000
0'
#15820000000000000
b110001100 ,
1'
#15840000000000000
0'
#15860000000000000
b110001101 ,
1'
#15880000000000000
0'
#15900000000000000
b110001110 ,
1'
#15920000000000000
0'
#15940000000000000
b110001111 ,
1'
#15960000000000000
0'
#15980000000000000
b110010000 ,
1'
#16000000000000000
0'
#16020000000000000
0&
0-
0%
0.
0#
00
0$
0/
b110010001 ,
1'
#16040000000000000
0'
#16060000000000000
0!
0"
01
b110010010 ,
1'
#16080000000000000
0'
#16100000000000000
b110010011 ,
1'
#16120000000000000
0'
#16140000000000000
b110010100 ,
1'
#16160000000000000
0'
#16180000000000000
b110010101 ,
1'
#16200000000000000
0'
#16220000000000000
b110010110 ,
1'
#16240000000000000
0'
#16260000000000000
b110010111 ,
1'
#16280000000000000
0'
#16300000000000000
b110011000 ,
1'
#16320000000000000
0'
#16340000000000000
b110011001 ,
1'
#16360000000000000
0'
#16380000000000000
b110011010 ,
1'
#16400000000000000
0'
#16420000000000000
1$
1/
b110011011 ,
1'
#16440000000000000
0'
#16460000000000000
1!
1"
11
b110011100 ,
1'
#16480000000000000
0'
#16500000000000000
b110011101 ,
1'
#16520000000000000
0'
#16540000000000000
b110011110 ,
1'
#16560000000000000
0'
#16580000000000000
b110011111 ,
1'
#16600000000000000
0'
#16620000000000000
b110100000 ,
1'
#16640000000000000
0'
#16660000000000000
b110100001 ,
1'
#16680000000000000
0'
#16700000000000000
b110100010 ,
1'
#16720000000000000
0'
#16740000000000000
b110100011 ,
1'
#16760000000000000
0'
#16780000000000000
b110100100 ,
1'
#16800000000000000
0'
#16820000000000000
1#
10
0$
0/
b110100101 ,
1'
#16840000000000000
0'
#16860000000000000
0!
0"
01
b110100110 ,
1'
#16880000000000000
0'
#16900000000000000
b110100111 ,
1'
#16920000000000000
0'
#16940000000000000
b110101000 ,
1'
#16960000000000000
0'
#16980000000000000
b110101001 ,
1'
#17000000000000000
0'
#17020000000000000
b110101010 ,
1'
#17040000000000000
0'
#17060000000000000
b110101011 ,
1'
#17080000000000000
0'
#17100000000000000
b110101100 ,
1'
#17120000000000000
0'
#17140000000000000
b110101101 ,
1'
#17160000000000000
0'
#17180000000000000
b110101110 ,
1'
#17200000000000000
0'
#17220000000000000
1$
1/
b110101111 ,
1'
#17240000000000000
0'
#17260000000000000
1!
1"
11
b110110000 ,
1'
#17280000000000000
0'
#17300000000000000
b110110001 ,
1'
#17320000000000000
0'
#17340000000000000
b110110010 ,
1'
#17360000000000000
0'
#17380000000000000
b110110011 ,
1'
#17400000000000000
0'
#17420000000000000
b110110100 ,
1'
#17440000000000000
0'
#17460000000000000
b110110101 ,
1'
#17480000000000000
0'
#17500000000000000
b110110110 ,
1'
#17520000000000000
0'
#17540000000000000
b110110111 ,
1'
#17560000000000000
0'
#17580000000000000
b110111000 ,
1'
#17600000000000000
0'
#17620000000000000
0#
00
0$
0/
b110111001 ,
1'
#17640000000000000
0'
#17660000000000000
0!
0"
01
b110111010 ,
1'
#17680000000000000
0'
#17700000000000000
b110111011 ,
1'
#17720000000000000
0'
#17740000000000000
b110111100 ,
1'
#17760000000000000
0'
#17780000000000000
b110111101 ,
1'
#17800000000000000
0'
#17820000000000000
b110111110 ,
1'
#17840000000000000
0'
#17860000000000000
b110111111 ,
1'
#17880000000000000
0'
#17900000000000000
b111000000 ,
1'
#17920000000000000
0'
#17940000000000000
b111000001 ,
1'
#17960000000000000
0'
#17980000000000000
b111000010 ,
1'
#18000000000000000
0'
#18020000000000000
1%
1.
1$
1/
b111000011 ,
1'
#18040000000000000
0'
#18060000000000000
1!
1"
11
b111000100 ,
1'
#18080000000000000
0'
#18100000000000000
b111000101 ,
1'
#18120000000000000
0'
#18140000000000000
b111000110 ,
1'
#18160000000000000
0'
#18180000000000000
b111000111 ,
1'
#18200000000000000
0'
